<?xml version="1.0" encoding="UTF-8"?>
<svg width="13px" height="9px" viewBox="0 0 13 9" version="1.1" xmlns="http://www.w3.org/2000/svg" xmlns:xlink="http://www.w3.org/1999/xlink">
    <!-- Generator: sketchtool 46.2 (44496) - http://www.bohemiancoding.com/sketch -->
    <title>3CC883BC-0551-4A87-AE84-613A82FF4E68</title>
    <desc>Created with sketchtool.</desc>
    <defs></defs>
    <g id="02.-Email-Templates" stroke="none" stroke-width="1" fill="none" fill-rule="evenodd">
        <g id="Email-Templates-(Edit)" transform="translate(-820.000000, -577.000000)" fill-rule="nonzero" fill="#616D80">
            <g id="Template" transform="translate(406.000000, 231.000000)">
                <g id="Message" transform="translate(44.000000, 321.000000)">
                    <g id="Editor" transform="translate(94.000000, 15.000000)">
                        <g id="3" transform="translate(264.000000, 0.000000)">
                            <g id="Group-2">
                                <path d="M14.7659574,10.28125 L25,10.28125 L25,11.40625 L14.7659574,11.40625 L14.7659574,10.28125 Z M12.8297872,11.6875 C12.3715084,11.6875 12,11.3097403 12,10.84375 C12,10.3777597 12.3715084,10 12.8297872,10 C13.2880661,10 13.6595745,10.3777597 13.6595745,10.84375 C13.6595745,11.3097403 13.2880661,11.6875 12.8297872,11.6875 Z M14.7659574,13.9375 L25,13.9375 L25,15.0625 L14.7659574,15.0625 L14.7659574,13.9375 Z M12.8297872,15.34375 C12.3715084,15.34375 12,14.9659903 12,14.5 C12,14.0340097 12.3715084,13.65625 12.8297872,13.65625 C13.2880661,13.65625 13.6595745,14.0340097 13.6595745,14.5 C13.6595745,14.9659903 13.2880661,15.34375 12.8297872,15.34375 Z M14.7659574,17.59375 L25,17.59375 L25,18.71875 L14.7659574,18.71875 L14.7659574,17.59375 Z M12.8297872,19 C12.3715084,19 12,18.6222403 12,18.15625 C12,17.6902597 12.3715084,17.3125 12.8297872,17.3125 C13.2880661,17.3125 13.6595745,17.6902597 13.6595745,18.15625 C13.6595745,18.6222403 13.2880661,19 12.8297872,19 Z" id="Bullet-List"></path>
                            </g>
                        </g>
                    </g>
                </g>
            </g>
        </g>
    </g>
</svg>