<?xml version="1.0" encoding="UTF-8"?>
<svg width="14px" height="10px" viewBox="0 0 14 10" version="1.1" xmlns="http://www.w3.org/2000/svg" xmlns:xlink="http://www.w3.org/1999/xlink">
    <!-- Generator: sketchtool 46.2 (44496) - http://www.bohemiancoding.com/sketch -->
    <title>357CAA4B-868E-44EF-AFE3-650D25CA1676</title>
    <desc>Created with sketchtool.</desc>
    <defs></defs>
    <g id="02.-Email-Templates" stroke="none" stroke-width="1" fill="none" fill-rule="evenodd">
        <g id="Email-Templates-(Edit)" transform="translate(-914.000000, -577.000000)" fill-rule="nonzero" fill="#616D80">
            <g id="Template" transform="translate(406.000000, 231.000000)">
                <g id="Message" transform="translate(44.000000, 321.000000)">
                    <g id="Editor" transform="translate(94.000000, 15.000000)">
                        <g id="3" transform="translate(264.000000, 0.000000)">
                            <g id="Group-2">
                                <path d="M106.181818,10 L119.818182,10 L119.818182,11.3 L106.181818,11.3 L106.181818,10 Z M106,18.1818182 L119.636364,18.1818182 L119.636364,19.4818181 L106,19.4818181 L106,18.1818182 Z M109.200012,15.4545455 L116.472739,15.4545455 L116.472739,16.7545454 L109.200012,16.7545454 L109.200012,15.4545455 Z M107.099976,12.7272727 L118.918157,12.7272727 L118.918157,14.0272727 L107.099976,14.0272727 L107.099976,12.7272727 Z" id="Center"></path>
                            </g>
                        </g>
                    </g>
                </g>
            </g>
        </g>
    </g>
</svg>