<?xml version="1.0" encoding="UTF-8"?>
<svg width="7px" height="10px" viewBox="0 0 7 10" version="1.1" xmlns="http://www.w3.org/2000/svg" xmlns:xlink="http://www.w3.org/1999/xlink">
    <!-- Generator: sketchtool 46.2 (44496) - http://www.bohemiancoding.com/sketch -->
    <title>8F5F73EC-9DF4-4BA2-9624-F5E219054D87</title>
    <desc>Created with sketchtool.</desc>
    <defs></defs>
    <g id="02.-Email-Templates" stroke="none" stroke-width="1" fill="none" fill-rule="evenodd">
        <g id="Email-Templates-(Edit)" transform="translate(-718.000000, -577.000000)" fill-rule="nonzero" fill="#616D80">
            <g id="Template" transform="translate(406.000000, 231.000000)">
                <g id="Message" transform="translate(44.000000, 321.000000)">
                    <g id="Editor" transform="translate(94.000000, 15.000000)">
                        <g id="2" transform="translate(134.000000, 0.000000)">
                            <path d="M41.866954,18.6666667 L43.7440345,11.3333333 L42.3333333,11.3333333 L42.3333333,10 L47,10 L47,11.3333333 L45.0773678,11.3333333 L43.2002874,18.6666667 L44.6666667,18.6666667 L44.6666667,20 L40,20 L40,18.6666667 L41.866954,18.6666667 Z" id="I"></path>
                        </g>
                    </g>
                </g>
            </g>
        </g>
    </g>
</svg>