<svg xmlns="http://www.w3.org/2000/svg" xmlns:xlink="http://www.w3.org/1999/xlink" width="36" height="36" viewBox="0 0 36 36">
    <defs>
        <circle id="a" cx="18" cy="18" r="18"/>
    </defs>
    <g fill="none" fill-rule="evenodd">
        <mask id="b" fill="#fff">
            <use xlink:href="#a"/>
        </mask>
        <use fill="#EBEDF0" xlink:href="#a"/>
        <path fill="#AEB4C0" fill-rule="nonzero" d="M30.969 33.685c.22 1.342-.742 2.603-2.089 2.712A97.931 97.931 0 0 1 18 37c-3.82 0-7.473-.192-10.88-.575-1.347-.165-2.308-1.398-2.089-2.74.77-4.438 3.435-8.164 7.09-10.11A8.697 8.697 0 0 0 18 25.85c2.28 0 4.341-.849 5.88-2.274 3.654 1.946 6.32 5.672 7.089 10.11zM18 23.329c-3.414 0-6.182-2.76-6.182-6.165C11.818 13.76 14.586 11 18 11c3.414 0 6.182 2.76 6.182 6.164 0 3.405-2.768 6.165-6.182 6.165z" mask="url(#b)"/>
    </g>
</svg>
