<?xml version="1.0" encoding="UTF-8"?>
<svg width="13px" height="13px" viewBox="0 0 13 13" version="1.1" xmlns="http://www.w3.org/2000/svg" xmlns:xlink="http://www.w3.org/1999/xlink">
    <!-- Generator: sketchtool 46.2 (44496) - http://www.bohemiancoding.com/sketch -->
    <title>F84369C3-F664-4D5E-89E0-720FCA0C287E</title>
    <desc>Created with sketchtool.</desc>
    <defs></defs>
    <g id="02.-Email-Templates" stroke="none" stroke-width="1" fill="none" fill-rule="evenodd">
        <g id="Email-Templates-(Edit)" transform="translate(-1042.000000, -575.000000)" fill-rule="nonzero" fill="#616D80">
            <g id="Template" transform="translate(406.000000, 231.000000)">
                <g id="Message" transform="translate(44.000000, 321.000000)">
                    <g id="Editor" transform="translate(94.000000, 15.000000)">
                        <g id="4" transform="translate(429.000000, 0.000000)">
                            <path d="M74.8531463,14.3379749 L75.3383358,13.8527854 C74.6041253,12.7427982 74.7254259,11.2298586 75.7022378,10.2532723 L77.1181884,8.83764877 C77.6585381,8.29742394 78.3768112,8 79.1408524,8 C79.9048937,8 80.6231668,8.29742394 81.1635164,8.83764877 C82.2788279,9.95270255 82.2788279,11.7669886 81.1635164,12.8820424 L79.7475658,14.2976659 C79.2072162,14.8381767 78.488943,15.1356007 77.7249018,15.1356007 C77.1552103,15.1356007 76.6108051,14.970085 76.146826,14.6620527 L75.6616641,15.1472146 C76.3958747,16.2572018 76.2745741,17.7701414 75.2977622,18.7467277 L73.8818116,20.1623512 C73.3414619,20.7025761 72.6231888,21 71.8591476,21 C71.0951063,21 70.3768332,20.7022901 69.8364836,20.1623512 C68.7211721,19.0472974 68.7211721,17.2330114 69.8364836,16.1179576 L71.2524342,14.7023341 C71.7927838,14.1621092 72.511057,13.8646853 73.2750982,13.8646853 C73.8447784,13.8646853 74.3891732,14.0300354 74.8531463,14.3379749 Z M74.0156754,15.1754459 C73.7874167,15.0662607 73.5356921,15.0086235 73.2750982,15.0086235 C72.816559,15.0086235 72.3857668,15.1870779 72.0613854,15.5110984 L70.6454347,16.926722 C69.9763623,17.5956398 69.9763623,18.684383 70.6454347,19.3533009 C70.9695301,19.6773214 71.4006084,19.8557758 71.8591476,19.8557758 C72.3176867,19.8557758 72.748479,19.6770354 73.0728604,19.3533009 L74.488811,17.9376774 C75.016086,17.4105242 75.1278321,16.6226376 74.8240494,15.9848293 L72.8703003,17.9385784 L72.0614216,17.1296996 L74.0156754,15.1754459 Z M76.9841667,13.824712 C77.2124672,13.9339987 77.4642478,13.9916625 77.7249018,13.9916625 C78.183441,13.9916625 78.6142332,13.8129221 78.9386146,13.4891876 L80.3545653,12.073564 C81.0236377,11.4046461 81.0236377,10.3159029 80.3545653,9.64698506 C80.0301838,9.32267858 79.5993916,9.14422421 79.1408524,9.14422421 C78.6823133,9.14422421 78.251521,9.32267858 77.9271396,9.64669908 L76.511189,11.0623226 C75.983914,11.5894758 75.8721679,12.3773623 76.1759506,13.0151707 L78.1294136,11.0617076 L78.9382924,11.8705863 L76.9841667,13.824712 Z" id="Link"></path>
                        </g>
                    </g>
                </g>
            </g>
        </g>
    </g>
</svg>