<?xml version="1.0" encoding="UTF-8"?>
<svg width="15px" height="12px" viewBox="0 0 15 12" version="1.1" xmlns="http://www.w3.org/2000/svg" xmlns:xlink="http://www.w3.org/1999/xlink">
    <!-- Generator: sketchtool 46.2 (44496) - http://www.bohemiancoding.com/sketch -->
    <title>3A1F889D-2476-46F3-8EE6-EE0D48DCD6A1</title>
    <desc>Created with sketchtool.</desc>
    <defs>
        <rect id="path-1" x="0" y="5" width="13" height="1"></rect>
    </defs>
    <g id="02.-Email-Templates" stroke="none" stroke-width="1" fill="none" fill-rule="evenodd">
        <g id="Email-Templates-(Edit)" transform="translate(-776.000000, -576.000000)">
            <g id="Template" transform="translate(406.000000, 231.000000)">
                <g id="Message" transform="translate(44.000000, 321.000000)">
                    <g id="Editor" transform="translate(94.000000, 15.000000)">
                        <g id="2" transform="translate(134.000000, 0.000000)">
                            <g id="S" transform="translate(99.000000, 9.000000)">
                                <path d="M8.04980469,8.38867188 C8.04980469,8.00130015 7.9130873,7.70393984 7.63964844,7.49658203 C7.36620957,7.28922422 6.87402699,7.07047641 6.16308594,6.84033203 C5.45214488,6.61018765 4.88932499,6.38346466 4.47460938,6.16015625 C3.34439539,5.54947611 2.77929688,4.72689319 2.77929688,3.69238281 C2.77929688,3.15461971 2.93082531,2.67496956 3.23388672,2.25341797 C3.53694813,1.83186638 3.97216513,1.50260535 4.53955078,1.265625 C5.10693643,1.02864465 5.74381157,0.91015625 6.45019531,0.91015625 C7.16113637,0.91015625 7.79459357,1.03889845 8.35058594,1.29638672 C8.9065783,1.55387499 9.33837737,1.91731536 9.64599609,2.38671875 C9.95361482,2.85612214 10.1074219,3.38931993 10.1074219,3.98632812 L8.05664062,3.98632812 C8.05664062,3.53059668 7.91308737,3.1762708 7.62597656,2.92333984 C7.33886575,2.67040889 6.93554947,2.54394531 6.41601562,2.54394531 C5.91471104,2.54394531 5.52506649,2.64990128 5.24707031,2.86181641 C4.96907413,3.07373153 4.83007812,3.35286285 4.83007812,3.69921875 C4.83007812,4.02278808 4.99299967,4.29394422 5.31884766,4.51269531 C5.64469564,4.73144641 6.12434579,4.93652248 6.7578125,5.12792969 C7.924485,5.4788429 8.7744114,5.9140599 9.30761719,6.43359375 C9.84082298,6.9531276 10.1074219,7.60025654 10.1074219,8.375 C10.1074219,9.23633243 9.78157878,9.91194417 9.12988281,10.4018555 C8.47818685,10.8917668 7.60091697,11.1367188 6.49804688,11.1367188 C5.73241805,11.1367188 5.03515939,10.9965834 4.40625,10.7163086 C3.77734061,10.4360338 3.29769045,10.0520858 2.96728516,9.56445312 C2.63687986,9.07682048 2.47167969,8.51172196 2.47167969,7.86914063 L4.52929688,7.86914063 C4.52929688,8.96745341 5.18554031,9.51660156 6.49804688,9.51660156 C6.98567952,9.51660156 7.36620957,9.41748146 7.63964844,9.21923828 C7.9130873,9.0209951 8.04980469,8.7441424 8.04980469,8.38867188 Z" fill="#616D80"></path>
                                <g id="Rectangle-3">
                                    <use fill="#616D80" fill-rule="evenodd" xlink:href="#path-1"></use>
                                    <rect stroke="#FFFFFF" stroke-width="0.400000006" x="-0.200000003" y="4.8" width="13.4" height="1.40000001"></rect>
                                </g>
                            </g>
                        </g>
                    </g>
                </g>
            </g>
        </g>
    </g>
</svg>