<svg width="22" height="18" viewBox="0 0 22 18" version="1.1" xmlns="http://www.w3.org/2000/svg" xmlns:xlink="http://www.w3.org/1999/xlink">
<title>Group</title>
<desc>Created using Figma</desc>
<g id="Canvas" transform="translate(-1888 -2073)">
<g id="Group">
<g id="Oval 2">
<use xlink:href="#path0_fill" transform="translate(1888 2073)" fill="#0070D2"/>
</g>
<g id="Rectangle 3">
<use xlink:href="#path1_fill" transform="translate(1903.2 2075.75)" fill="#0070D2"/>
</g>
<g id="Path">
<use xlink:href="#path2_fill" transform="translate(1893 2078)" fill="#FFFFFF"/>
</g>
</g>
</g>
<defs>
<path id="path0_fill" fill-rule="evenodd" d="M 9 18C 13.9706 18 18 13.9706 18 9C 18 4.02944 13.9706 0 9 0C 4.02944 0 0 4.02944 0 9C 0 13.9706 4.02944 18 9 18Z"/>
<path id="path1_fill" fill-rule="evenodd" d="M 0 0L 6.7959 4.25439L 6.7959 8.25439L 0 12.6045L 0 0Z"/>
<path id="path2_fill" fill-rule="evenodd" d="M 4 8C 6.20914 8 8 6.20914 8 4C 8 1.79086 6.20914 0 4 0C 1.79086 0 0 1.79086 0 4C 0 6.20914 1.79086 8 4 8Z"/>
</defs>
</svg>
