<?xml version="1.0" encoding="UTF-8"?>
<svg width="12px" height="12px" viewBox="0 0 12 12" version="1.1" xmlns="http://www.w3.org/2000/svg" xmlns:xlink="http://www.w3.org/1999/xlink">
    <!-- Generator: sketchtool 46.2 (44496) - http://www.bohemiancoding.com/sketch -->
    <title>A82BDB14-C75B-4DE8-A339-93D6C7287072</title>
    <desc>Created with sketchtool.</desc>
    <defs></defs>
    <g id="02.-Email-Templates" stroke="none" stroke-width="1" fill="none" fill-rule="evenodd">
        <g id="Email-Templates-(Edit)" transform="translate(-742.000000, -577.000000)" fill-rule="nonzero" fill="#616D80">
            <g id="Template" transform="translate(406.000000, 231.000000)">
                <g id="Message" transform="translate(44.000000, 321.000000)">
                    <g id="Editor" transform="translate(94.000000, 15.000000)">
                        <g id="2" transform="translate(134.000000, 0.000000)">
                            <path d="M70.4019851,19.0500002 L69.5980149,19.0500002 C67.5291315,19.0500002 65.8461538,17.2166453 65.8461538,14.9629033 L65.8461538,10 L66.9181141,10 L66.9181141,14.9629033 C66.9181141,16.5726356 68.1203176,17.8822582 69.5980149,17.8822582 L70.4019851,17.8822582 C71.8796824,17.8822582 73.0818859,16.5726356 73.0818859,14.9629033 L73.0818859,10 L74.1538462,10 L74.1538462,14.9629033 C74.1538462,17.2166453 72.4708685,19.0500002 70.4019851,19.0500002 Z M64,20.7027027 L76,20.7027027 L76,22 L64,22 L64,20.7027027 Z" id="U"></path>
                        </g>
                    </g>
                </g>
            </g>
        </g>
    </g>
</svg>